<?xml version="1.0" encoding="UTF-8" standalone="no"?>
<!DOCTYPE svg PUBLIC "-//W3C//DTD SVG 1.1//EN" "http://www.w3.org/Graphics/SVG/1.1/DTD/svg11.dtd">
<svg width="100%" height="100%" viewBox="0 0 531 415" version="1.1" xmlns="http://www.w3.org/2000/svg" xmlns:xlink="http://www.w3.org/1999/xlink" xml:space="preserve" xmlns:serif="http://www.serif.com/" style="fill-rule:evenodd;clip-rule:evenodd;stroke-linejoin:round;stroke-miterlimit:2;">
    <rect x="151.5" y="227.25" width="379.307" height="187.65" style="fill:white;fill-opacity:0.9;"/>
    <rect x="75.75" y="0" width="75.75" height="75.75" style="fill:rgb(250,191,0);"/>
    <rect x="227.25" y="0" width="75.75" height="75.75" style="fill:rgb(250,191,0);"/>
    <rect x="151.5" y="75.75" width="75.75" height="75.75" style="fill:rgb(250,191,0);"/>
    <rect x="0" y="151.5" width="75.75" height="75.75" style="fill:rgb(250,191,0);"/>
    <rect x="75.75" y="227.25" width="75.75" height="75.75" style="fill:rgb(250,191,0);"/>
    <rect x="151.5" y="227.25" width="75.75" height="75.75" style="fill:rgb(250,191,0);"/>
    <rect x="227.25" y="227.299" width="75.75" height="75.75" style="fill:rgb(255,217,126);"/>
    <rect x="75.75" y="75.75" width="75.75" height="75.75" style="fill:rgb(254,224,150);"/>
    <rect x="75.75" y="151.5" width="75.75" height="75.75" style="fill:rgb(255,210,97);"/>
    <rect x="151.5" y="151.5" width="75.75" height="75.75" style="fill:rgb(255,234,184);"/>
    <rect x="75.75" y="303.052" width="75.75" height="75.75" style="fill:rgb(255,211,98);"/>
    <path d="M91.631,303.052L151.5,303.052L151.5,378.802L89.25,378.802L91.631,303.052Z" style="fill:rgb(121,140,187);"/>
    <path d="M151.5,227.25L182.949,227.25L184.14,303L151.5,303L151.5,227.25Z" style="fill:rgb(71,106,165);"/>
    <path d="M151.5,303L91.633,303L94.013,227.25L151.5,227.25L151.5,303Z" style="fill:rgb(3,74,134);"/>
    <path d="M181.772,152.365L182.949,227.25L151.5,227.25L151.5,151.5L181.916,151.5L181.772,152.365Z" style="fill:rgb(195,202,224);"/>
    <path d="M151.5,227.25L94.013,227.25L96.367,152.365L96.234,151.5L151.5,151.5L151.5,227.25Z" style="fill:rgb(71,106,165);"/>
    <path d="M151.5,130.102C162.447,131.779 173.126,135.678 183.552,141.667L181.916,151.5L151.5,151.5L151.5,130.102Z" style="fill:rgb(56,99,161);"/>
    <path d="M96.234,151.5L94.588,140.776C114.351,130.669 133.297,127.313 151.5,130.102L151.5,151.5L96.234,151.5Z" style="fill:rgb(122,141,188);"/>
    <path d="M157.977,75.75L174.516,129.719C166.844,126.839 159.172,124.909 151.5,123.922L151.5,75.75L157.977,75.75Z" style="fill:rgb(56,99,161);"/>
    <path d="M121.197,75.75L151.5,75.75L151.5,123.922C135.745,121.894 119.989,123.845 104.234,129.719L121.197,75.75Z" style="fill:rgb(121,140,187);"/>
    <path d="M151.5,54.615L151.5,75.75L121.197,75.75L139.82,16.5L151.5,54.615Z" style="fill:rgb(3,74,133);"/>
    <g transform="matrix(0.75,0,0,0.75,-84.6342,-5.22303)">
        <g transform="matrix(1,0,0,1,329.659,511.359)">
            <text x="0px" y="0px" style="font-family:'Garamond', serif;font-size:111.2px;fill:rgb(3,74,134);">Z</text>
        </g>
        <g transform="matrix(1,0,0,1,409.18,511.359)">
            <text x="0px" y="0px" style="font-family:'Garamond', serif;font-size:111.2px;fill:rgb(3,74,134);">Ö</text>
        </g>
        <g transform="matrix(1,0,0,1,508.139,511.359)">
            <text x="0px" y="0px" style="font-family:'Garamond', serif;font-size:111.2px;fill:rgb(3,74,134);">R</text>
        </g>
        <g transform="matrix(1,0,0,1,589.873,511.359)">
            <text x="0px" y="0px" style="font-family:'Garamond', serif;font-size:111.2px;fill:rgb(3,74,134);">B</text>
        </g>
        <g transform="matrix(1,0,0,1,670.491,511.359)">
            <text x="0px" y="0px" style="font-family:'Garamond', serif;font-size:111.2px;fill:rgb(3,74,134);">I</text>
        </g>
        <g transform="matrix(1,0,0,1,720.296,511.359)">
            <text x="0px" y="0px" style="font-family:'Garamond', serif;font-size:111.2px;fill:rgb(3,74,134);">G</text>
        </g>
    </g>
    <g transform="matrix(0.75,0,0,0.75,-87,-8.45972)">
        <g transform="matrix(1,0,0,1,536.186,415)">
            <text x="0px" y="0px" style="font-family:'Garamond', serif;font-size:83.467px;fill:rgb(122,141,188);">S</text>
        </g>
        <g transform="matrix(1,0,0,0.99,577.817,415)">
            <text x="0px" y="0px" style="font-family:'Garamond', serif;font-size:83.467px;fill:rgb(122,141,188);">T</text>
        </g>
        <g transform="matrix(1,0,0,1,630.915,415)">
            <text x="0px" y="0px" style="font-family:'Garamond', serif;font-size:83.467px;fill:rgb(122,141,188);">A</text>
        </g>
        <g>
            <g transform="matrix(1,0,0,1,686.007,415)">
                <text x="0px" y="0px" style="font-family:'Garamond', serif;font-size:83.467px;fill:rgb(122,141,188);">D</text>
            </g>
            <g transform="matrix(1,0,0,1,751.928,415)">
                <text x="0px" y="0px" style="font-family:'Garamond', serif;font-size:83.467px;fill:rgb(122,141,188);">T</text>
            </g>
        </g>
    </g>
</svg>